…
The relationship between the distance and the average delay for each
location.

df_2013_dest <- 
  df_2013 %>% 
  group_by(dest) %>%
  summarize(
    count = n(),
    dist = mean(distance, na.rm = TRUE),
    delay = mean(arr_delay, na.rm = TRUE)
  )

df_2013_dest

## # A tibble: 104 × 4
##    dest  count  dist  delay
##    <chr> <int> <dbl>  <dbl>
##  1 ABQ      22 1826    8.32
##  2 ACK      29  199   -1.69
##  3 ALB     103  143   13.6 
##  4 ANC       3 3370  -22.7 
##  5 ATL    4043  757.   8.74
##  6 AUS     510 1513.   3.67
##  7 AVL      54  584.  11.2 
##  8 BDL     100  116    7.75
##  9 BGR      80  378    4.86
## 10 BHM      60  866   19.7 
## # ℹ 94 more rows
…
Arrival delay by Destination

df_2013 %>%
  group_by(dest) %>%
  summarise(mean_ad = mean(arr_delay), sd_ad = sd(arr_delay), IQR_ad = IQR(arr_delay), n = n()) %>% 
  arrange(desc(mean_ad))

## # A tibble: 104 × 5
##    dest  mean_ad sd_ad IQR_ad     n
##    <chr>   <dbl> <dbl>  <dbl> <int>
##  1 TUL      47.5  74.9   84      46
##  2 OKC      33.1  53.3   67.8    60
##  3 CAE      27.6  46.8   32.5    27
##  4 TYS      27.5  52.6   70     102
##  5 DSM      24.7  57.8   55.8    86
##  6 GRR      21.7  54.3   41.8   194
##  7 CRW      21.5  46.9   52      49
##  8 GSP      21.4  49.5   55     183
##  9 SBN      20.5  41.7   29.5     2
## 10 JAC      20.3  20.5   18       3
## # ℹ 94 more rows
…
Flight

Tailnum

flights_delay <- 
  df_2013 %>% 
  group_by(tailnum) %>%
  summarize(
    count = n(),
    avg_delay = mean(arr_delay)
  )

flights_delay

## # A tibble: 3,737 × 3
##    tailnum count avg_delay
##    <chr>   <int>     <dbl>
##  1 D942DN      2     16.5 
##  2 N0EGMQ     79     12.4 
##  3 N10156     39      7.56
##  4 N102UW      8     27.8 
##  5 N103US      7     -5.86
##  6 N104UW      3    -19.7 
##  7 N10575     75     26.0 
##  8 N105UW     12     -9.08
##  9 N107US      7     12.9 
## 10 N108UW     11      7.82
## # ℹ 3,727 more rows
…
max_delay <- 
  flights_delay %>% 
  arrange(-avg_delay)

max_delay

## # A tibble: 3,737 × 3
##    tailnum count avg_delay
##    <chr>   <int>     <dbl>
##  1 N305AS      1      196 
##  2 N933LR      2      176.
##  3 N621SW      1      175 
##  4 N635AA      5      161.
##  5 N136DL      1      146 
##  6 N610WN      1      141 
##  7 N540US      2      140.
##  8 N299AT      1      139 
##  9 N938LR      1      128 
## 10 N354AT      3      116.
## # ℹ 3,727 more rows
…
