…
    ## Loading required package: Matrix

    ## 
    ## Attaching package: 'Matrix'

    ## The following objects are masked from 'package:tidyr':
    ## 
    ##     expand, pack, unpack

    ## Loaded glmnet 4.1-8

    ## # A tibble: 124 × 3
    ##    term        estimate penalty
    ##    <chr>          <dbl>   <dbl>
    ##  1 (Intercept) 15.8           0
    ##  2 originJFK    0.00281       0
    ##  3 originLGA   -0.0183        0
    ##  4 year         0             0
    ##  5 monthFeb    -0.231         0
    ##  6 monthMar    -0.271         0
    ##  7 monthApr     0.240         0
    ##  8 monthMay    -0.402         0
    ##  9 monthJun     0.137         0
    ## 10 monthJul     0.209         0
    ## # ℹ 114 more rows
…
